…
```{r}
# 請勿更動此 code chunk
library(tibble)
df <- as_tibble(iris)
df
```

1. (20 分)  
請從 `df` 中 (1) 篩選出 `Species` 變項為 `versicolor` 的所有觀察值，並 (2) 只保留 `Sepal.Length`, `Sepal.Width`, `Petal.Length`, `Petal.Width` 這 4 個變項：
    ```{r}
    # Write your code here
    
    
    # should print out:
    #> # A tibble: 50 x 4
    #>    Sepal.Length Sepal.Width Petal.Length Petal.Width
    #>           <dbl>       <dbl>        <dbl>       <dbl>
    #>  1          7           3.2          4.7         1.4
    #>  2          6.4         3.2          4.5         1.5
    #>  3          6.9         3.1          4.9         1.5
    #>  4          5.5         2.3          4           1.3
    #>  5          6.5         2.8          4.6         1.5
    #>  6          5.7         2.8          4.5         1.3
    #>  7          6.3         3.3          4.7         1.6
    #>  8          4.9         2.4          3.3         1  
    #>  9          6.6         2.9          4.6         1.3
    #> 10          5.2         2.7          3.9         1.4
    #> # … with 40 more rows
    ```

2. (20 分)  
請從 `df` 中篩選出 (1) `Species` 變項為 `versicolor` 且 (2) `Sepal.Length` 大於 5.8 的所有觀察值：
    ```{r}
    # Write your code here
    
    
    # should print out:
    #> # A tibble: 26 x 5
    #>    Sepal.Length Sepal.Width Petal.Length Petal.Width Species  
    #>           <dbl>       <dbl>        <dbl>       <dbl> <fct>    
    #>  1          7           3.2          4.7         1.4 versicol…
    #>  2          6.4         3.2          4.5         1.5 versicol…
    #>  3          6.9         3.1          4.9         1.5 versicol…
    #>  4          6.5         2.8          4.6         1.5 versicol…
    #>  5          6.3         3.3          4.7         1.6 versicol…
    #>  6          6.6         2.9          4.6         1.3 versicol…
    #>  7          5.9         3            4.2         1.5 versicol…
    #>  8          6           2.2          4           1   versicol…
    #>  9          6.1         2.9          4.7         1.4 versicol…
    #> 10          6.7         3.1          4.4         1.4 versicol…
    #> # … with 16 more rows
    ```

3. (20 分)  
請從 `df` 中篩選出 `Sepal.Length` 與 `Sepal.Width` 之和大於 8.5 的所有觀察值。
    ```{r}
    # Write your code here
    
    
    # should print out:
    #> # A tibble: 93 x 5
    #>    Sepal.Length Sepal.Width Petal.Length Petal.Width Species
    #>           <dbl>       <dbl>        <dbl>       <dbl> <fct>  
    #>  1          5.1         3.5          1.4         0.2 setosa 
    #>  2          5           3.6          1.4         0.2 setosa 
    #>  3          5.4         3.9          1.7         0.4 setosa 
    #>  4          5.4         3.7          1.5         0.2 setosa 
    #>  5          5.8         4            1.2         0.2 setosa 
    #>  6          5.7         4.4          1.5         0.4 setosa 
    #>  7          5.4         3.9          1.3         0.4 setosa 
    #>  8          5.1         3.5          1.4         0.3 setosa 
    #>  9          5.7         3.8          1.7         0.3 setosa 
    #> 10          5.1         3.8          1.5         0.3 setosa 
    #> # … with 83 more rows
    ```
…
